Introduction to R for Registry-Based Health Research - 5 Loading, explore, wrangle
…
To prepare a subset of data for analysis or visualization

To reorder columns for readability

Example:

Take the diag_data and select the columns: id, adm_date, and dis_date.

Code

diag_data |> 
  select(id, adm_date, dis_date)

# A tibble: 2,840,870 × 3
   id    adm_date   dis_date  
   <fct> <date>     <date>    
 1 1     2013-08-18 2013-08-22
 2 1     2013-11-10 2013-11-10
 3 2     2011-02-24 2011-02-24
 4 2     2014-04-30 2014-04-30
 5 3     2018-07-10 2018-07-12
 6 3     2018-07-10 2018-07-12
 7 3     2021-04-25 2021-04-25
 8 3     2024-07-20 2024-07-25
 9 4     2014-09-27 2014-09-27
10 4     2018-12-08 2018-12-08
# ℹ 2,840,860 more rows
…
starts_with("prefix") - selects columns starting with “prefix”

ends_with("suffix") - selects columns ending with “suffix”

contains("content") - select columns containing “content”.

So, we could have used ends_with() as well, by typing:

Code

diag_data |> 
  select(id, ends_with("date"))

# A tibble: 2,840,870 × 3
   id    adm_date   dis_date  
   <fct> <date>     <date>    
 1 1     2013-08-18 2013-08-22
 2 1     2013-11-10 2013-11-10
 3 2     2011-02-24 2011-02-24
 4 2     2014-04-30 2014-04-30
 5 3     2018-07-10 2018-07-12
 6 3     2018-07-10 2018-07-12
 7 3     2021-04-25 2021-04-25
 8 3     2024-07-20 2024-07-25
 9 4     2014-09-27 2014-09-27
10 4     2018-12-08 2018-12-08
# ℹ 2,840,860 more rows

This can be particular helpful when working with wide datasets.

5.10 filter() - Choosing rows

While select() works on columns, filter() works on rows. You use it to keep only the observations that meet certain conditions. Note that we use == when we specify a condition.

Example:

Code

diag_data |> 
  filter(contact_type == 1)

# A tibble: 799,454 × 6
   id    contact_type adm_date   dis_date   diag_a diag_b
   <fct> <fct>        <date>     <date>     <chr>  <chr> 
 1 1     1            2013-08-18 2013-08-22 DI12   DI10  
 2 3     1            2018-07-10 2018-07-12 DI50   DX08  
 3 3     1            2018-07-10 2018-07-12 DI50   DX01  
 4 3     1            2024-07-20 2024-07-25 DX08   DI50  
 5 5     1            2012-02-05 2012-02-12 DX06   DE78  
 6 5     1            2012-12-23 2012-12-26 DX09   DX07  
 7 6     1            2012-06-10 2012-06-17 DX03   DX06  
 8 6     1            2018-01-14 2018-01-22 DI15   DI10  
 9 6     1            2018-01-14 2018-01-22 DI15   DX04  
10 9     1            2011-03-15 2011-03-28 DE14   DI15  
# ℹ 799,444 more rows
…
Example:

Code

diag_data |> 
  mutate(
    contact_type_description = 
      case_when(
        contact_type == 1 ~ "Inpatient",
        contact_type == 2 ~ "Outpatient"
      )
  )

# A tibble: 2,840,870 × 7
   id    contact_type adm_date   dis_date   diag_a diag_b contact_type_descrip…¹
   <fct> <fct>        <date>     <date>     <chr>  <chr>  <chr>                 
 1 1     1            2013-08-18 2013-08-22 DI12   DI10   Inpatient             
 2 1     2            2013-11-10 2013-11-10 DX06   DE13   Outpatient            
 3 2     2            2011-02-24 2011-02-24 DE13   DI14   Outpatient            
 4 2     2            2014-04-30 2014-04-30 DI15   DE13   Outpatient            
 5 3     1            2018-07-10 2018-07-12 DI50   DX08   Inpatient             
 6 3     1            2018-07-10 2018-07-12 DI50   DX01   Inpatient             
 7 3     2            2021-04-25 2021-04-25 DX03   DX04   Outpatient            
 8 3     1            2024-07-20 2024-07-25 DX08   DI50   Inpatient             
 9 4     2            2014-09-27 2014-09-27 DI12   DX06   Outpatient            
10 4     2            2018-12-08 2018-12-08 DX08   DI15   Outpatient            
# ℹ 2,840,860 more rows
# ℹ abbreviated name: ¹​contact_type_description
…
Look only at in inpatient contacts.

Define the first recorded hospitalisation as number 1

Also count the total number of hospitalisations per patient.

5.13.1 Choose the columns we need

Code

diag_data |> 
  select(id, contact_type, adm_date)

# A tibble: 2,840,870 × 3
   id    contact_type adm_date  
   <fct> <fct>        <date>    
 1 1     1            2013-08-18
 2 1     2            2013-11-10
 3 2     2            2011-02-24
 4 2     2            2014-04-30
 5 3     1            2018-07-10
 6 3     1            2018-07-10
 7 3     2            2021-04-25
 8 3     1            2024-07-20
 9 4     2            2014-09-27
10 4     2            2018-12-08
# ℹ 2,840,860 more rows

5.13.2 Look only at inpatient hospital contacts

Code

diag_data |> 
  select(id, contact_type, adm_date) |> 
  filter(contact_type == 1)

# A tibble: 799,454 × 3
   id    contact_type adm_date  
   <fct> <fct>        <date>    
 1 1     1            2013-08-18
 2 3     1            2018-07-10
 3 3     1            2018-07-10
 4 3     1            2024-07-20
 5 5     1            2012-02-05
 6 5     1            2012-12-23
 7 6     1            2012-06-10
 8 6     1            2018-01-14
 9 6     1            2018-01-14
10 9     1            2011-03-15
# ℹ 799,444 more rows
5.13.3 Order the first recorded hospitalisation as number 1

Here we make sure that the dataset is correctly ordered per patient.

To do this, we can use the group_by() and arrange() function.

Code

diag_data |> 
  select(id, contact_type, adm_date) |> 
  filter(contact_type == 1) |> 
  group_by(id) |> 
  arrange(id, adm_date)

# A tibble: 799,454 × 3
# Groups:   id [541,052]
   id    contact_type adm_date  
   <fct> <fct>        <date>    
 1 1     1            2013-08-18
 2 3     1            2018-07-10
 3 3     1            2018-07-10
 4 3     1            2024-07-20
 5 5     1            2012-02-05
 6 5     1            2012-12-23
 7 6     1            2012-06-10
 8 6     1            2018-01-14
 9 6     1            2018-01-14
10 9     1            2011-03-15
# ℹ 799,444 more rows
…
We can see above that some inpatient contacts occur twice.

To fix this, we can use the distinct() function which keeps only unique rows within the defined groups.

Code

diag_data |> 
  select(id, contact_type, adm_date) |> 
  filter(contact_type == 1) |> 
  group_by(id) |> 
  arrange(id, adm_date) |> 
  distinct()

# A tibble: 696,523 × 3
# Groups:   id [541,052]
   id    contact_type adm_date  
   <fct> <fct>        <date>    
 1 1     1            2013-08-18
 2 3     1            2018-07-10
 3 3     1            2024-07-20
 4 5     1            2012-02-05
 5 5     1            2012-12-23
 6 6     1            2012-06-10
 7 6     1            2018-01-14
 8 9     1            2011-03-15
 9 9     1            2021-06-22
10 11    1            2010-08-31
# ℹ 696,513 more rows

5.13.5 Create an indicator of admission number

Code

diag_data |> 
  select(id, contact_type, adm_date) |> 
  filter(contact_type == 1) |> 
  group_by(id) |> 
  arrange(id, adm_date) |> 
  distinct() |> 
  mutate(adm_nr = row_number())

# A tibble: 696,523 × 4
# Groups:   id [541,052]
   id    contact_type adm_date   adm_nr
   <fct> <fct>        <date>      <int>
 1 1     1            2013-08-18      1
 2 3     1            2018-07-10      1
 3 3     1            2024-07-20      2
 4 5     1            2012-02-05      1
 5 5     1            2012-12-23      2
 6 6     1            2012-06-10      1
 7 6     1            2018-01-14      2
 8 9     1            2011-03-15      1
 9 9     1            2021-06-22      2
10 11    1            2010-08-31      1
# ℹ 696,513 more rows
5.13.6 Create an indicator of total number of admissions

Code

diag_data |> 
  select(id, contact_type, adm_date) |> 
  filter(contact_type == 1) |> 
  group_by(id) |> 
  arrange(id, adm_date) |> 
  distinct() |> 
  mutate(adm_nr = row_number(),
         adm_total = max(adm_nr)
         )

# A tibble: 696,523 × 5
# Groups:   id [541,052]
   id    contact_type adm_date   adm_nr adm_total
   <fct> <fct>        <date>      <int>     <int>
 1 1     1            2013-08-18      1         1
 2 3     1            2018-07-10      1         2
 3 3     1            2024-07-20      2         2
 4 5     1            2012-02-05      1         2
 5 5     1            2012-12-23      2         2
 6 6     1            2012-06-10      1         2
 7 6     1            2018-01-14      2         2
 8 9     1            2011-03-15      1         2
 9 9     1            2021-06-22      2         2
10 11    1            2010-08-31      1         2
# ℹ 696,513 more rows
…
The columns to join by

The by argument is rather essential. For instance, we can combine data from basic_data and diag_data using id. You can join by several columns if relevant.

Example: Join basic_data and diag_data

Let’s say you are interested in adding information birth date and death date to the diag_data

Code

# 01

left_join(diag_data, basic_data, by = "id")

# A tibble: 2,840,870 × 9
   id    contact_type adm_date   dis_date   diag_a diag_b birth_date death_date
   <fct> <fct>        <date>     <date>     <chr>  <chr>  <date>     <date>    
 1 1     1            2013-08-18 2013-08-22 DI12   DI10   1933-01-01 NA        
 2 1     2            2013-11-10 2013-11-10 DX06   DE13   1933-01-01 NA        
 3 2     2            2011-02-24 2011-02-24 DE13   DI14   1971-01-01 NA        
 4 2     2            2014-04-30 2014-04-30 DI15   DE13   1971-01-01 NA        
 5 3     1            2018-07-10 2018-07-12 DI50   DX08   1997-01-01 NA        
 6 3     1            2018-07-10 2018-07-12 DI50   DX01   1997-01-01 NA        
 7 3     2            2021-04-25 2021-04-25 DX03   DX04   1997-01-01 NA        
 8 3     1            2024-07-20 2024-07-25 DX08   DI50   1997-01-01 NA        
 9 4     2            2014-09-27 2014-09-27 DI12   DX06   1958-01-01 NA        
10 4     2            2018-12-08 2018-12-08 DX08   DI15   1958-01-01 NA        
# ℹ 2,840,860 more rows
# ℹ 1 more variable: sex <fct>

Code

# 02

diag_data |> left_join(basic_data, by = "id")

# A tibble: 2,840,870 × 9
   id    contact_type adm_date   dis_date   diag_a diag_b birth_date death_date
   <fct> <fct>        <date>     <date>     <chr>  <chr>  <date>     <date>    
 1 1     1            2013-08-18 2013-08-22 DI12   DI10   1933-01-01 NA        
 2 1     2            2013-11-10 2013-11-10 DX06   DE13   1933-01-01 NA        
 3 2     2            2011-02-24 2011-02-24 DE13   DI14   1971-01-01 NA        
 4 2     2            2014-04-30 2014-04-30 DI15   DE13   1971-01-01 NA        
 5 3     1            2018-07-10 2018-07-12 DI50   DX08   1997-01-01 NA        
 6 3     1            2018-07-10 2018-07-12 DI50   DX01   1997-01-01 NA        
 7 3     2            2021-04-25 2021-04-25 DX03   DX04   1997-01-01 NA        
 8 3     1            2024-07-20 2024-07-25 DX08   DI50   1997-01-01 NA        
 9 4     2            2014-09-27 2014-09-27 DI12   DX06   1958-01-01 NA        
10 4     2            2018-12-08 2018-12-08 DX08   DI15   1958-01-01 NA        
# ℹ 2,840,860 more rows
# ℹ 1 more variable: sex <fct>

You can also specify which columns you wish to add directly in the join function.

Let’s say we only wanted to add birth_date

Code

diag_data |> 
  left_join(
    basic_data |> select(id, birth_date), 
    by = "id")

# A tibble: 2,840,870 × 7
   id    contact_type adm_date   dis_date   diag_a diag_b birth_date
   <fct> <fct>        <date>     <date>     <chr>  <chr>  <date>    
 1 1     1            2013-08-18 2013-08-22 DI12   DI10   1933-01-01
 2 1     2            2013-11-10 2013-11-10 DX06   DE13   1933-01-01
 3 2     2            2011-02-24 2011-02-24 DE13   DI14   1971-01-01
 4 2     2            2014-04-30 2014-04-30 DI15   DE13   1971-01-01
 5 3     1            2018-07-10 2018-07-12 DI50   DX08   1997-01-01
 6 3     1            2018-07-10 2018-07-12 DI50   DX01   1997-01-01
 7 3     2            2021-04-25 2021-04-25 DX03   DX04   1997-01-01
 8 3     1            2024-07-20 2024-07-25 DX08   DI50   1997-01-01
 9 4     2            2014-09-27 2014-09-27 DI12   DX06   1958-01-01
10 4     2            2018-12-08 2018-12-08 DX08   DI15   1958-01-01
# ℹ 2,840,860 more rows
