Introduction to R for Registry-Based Health Research - 6 Study population
…
6.5.2.4 4. First-time events

Now, we would like to make sure we are only having first-time events.

But, how do we know if anyone has multiple events?

Code

study_pop_03 |>
  add_count(id) |>
  filter(n > 1) |>
  arrange(id)

# A tibble: 480 × 7
   id    contact_type adm_date   dis_date   diag_a diag_b     n
   <fct> <fct>        <date>     <date>     <chr>  <chr>  <int>
 1 483   1            2017-12-10 2017-12-19 DI21   DI21       2
 2 483   1            2022-08-18 2022-08-26 DI21   DI21       2
 3 2469  1            2023-08-26 2023-08-31 DI21   DI21       2
 4 2469  1            2023-10-18 2023-10-24 DI21   DI21       2
 5 5867  1            2020-02-12 2020-03-02 DI21   DI21       2
 6 5867  1            2023-12-24 2023-12-31 DI21   DI21       2
 7 7695  1            2014-07-18 2014-07-25 DI21   DI21       2
 8 7695  1            2017-08-05 2017-08-12 DI21   DI21       2
 9 8735  1            2019-01-30 2019-02-06 DI21   DI21       2
10 8735  1            2022-02-13 2022-02-27 DI21   DI21       2
# ℹ 470 more rows
…
