Introduction to R for Registry-Based Health Research - 7 Covariates
…
Heart failure

7.4.1 Age and sex

In the basic_data, we can obtain information on age ans sex from the variables birth_date and sex.

Code

data_cov_01 <- data_pop_mi |> 
  left_join(basic_data |> select(id, birth_date, sex),
            by = "id")

data_cov_01

# A tibble: 4,000 × 5
   id    index_date   los birth_date sex  
   <fct> <date>     <dbl> <date>     <fct>
 1 212   2014-07-18     4 1941-01-01 1    
 2 483   2017-12-10     9 1918-01-01 2    
 3 731   2023-07-27     7 1931-01-01 2    
 4 949   2021-11-03     7 1954-01-01 1    
 5 981   2020-08-05    13 1945-01-01 2    
 6 982   2015-05-22     6 1945-01-01 2    
 7 1123  2015-07-25     6 1955-01-01 1    
 8 2166  2016-09-30     7 1962-01-01 1    
 9 2469  2023-08-26     5 1920-01-02 2    
10 2870  2010-09-03    14 1939-01-01 1    
# ℹ 3,990 more rows

Now, we can calculate age at admission

Code

data_cov_02 <- data_cov_01 |> 
  mutate(
    age = round(as.numeric(index_date - birth_date)/365.25,0)
  )

data_cov_02

# A tibble: 4,000 × 6
   id    index_date   los birth_date sex     age
   <fct> <date>     <dbl> <date>     <fct> <dbl>
 1 212   2014-07-18     4 1941-01-01 1        74
 2 483   2017-12-10     9 1918-01-01 2       100
 3 731   2023-07-27     7 1931-01-01 2        93
 4 949   2021-11-03     7 1954-01-01 1        68
 5 981   2020-08-05    13 1945-01-01 2        76
 6 982   2015-05-22     6 1945-01-01 2        70
 7 1123  2015-07-25     6 1955-01-01 1        61
 8 2166  2016-09-30     7 1962-01-01 1        55
 9 2469  2023-08-26     5 1920-01-02 2       104
10 2870  2010-09-03    14 1939-01-01 1        72
# ℹ 3,990 more rows
…
data_cov_diag <- data_pop_mi |> 
  select(id, index_date) |> 
  left_join(diag_data, by = "id") |> 
  mutate(
    diff = as.numeric(adm_date - index_date) # can also be switched, then just adjusted definition of lookback
  ) |> 
  filter(
    diff < 0,
    diff > 365.25*lookback
  ) |> 
  select(-diff)

data_cov_diag

# A tibble: 7,917 × 7
   id    index_date contact_type adm_date   dis_date   diag_a diag_b
   <fct> <date>     <fct>        <date>     <date>     <chr>  <chr> 
 1 949   2021-11-03 2            2015-07-02 2015-07-02 DE78   DE78  
 2 949   2021-11-03 1            2017-06-07 2017-06-08 DI50   DI50  
 3 949   2021-11-03 2            2020-06-26 2020-06-26 DE78   DE78  
 4 949   2021-11-03 1            2021-01-07 2021-01-11 DI50   DI50  
 5 949   2021-11-03 1            2021-03-14 2021-03-20 DI50   DI50  
 6 949   2021-11-03 2            2021-06-25 2021-06-25 DE78   DE78  
 7 982   2015-05-22 2            2010-07-27 2010-07-27 DE78   DE78  
 8 982   2015-05-22 2            2011-01-18 2011-01-18 DE78   DE78  
 9 982   2015-05-22 2            2012-12-26 2012-12-26 DE78   DE78  
10 1123  2015-07-25 2            2011-01-13 2011-01-13 DE78   DE78  
# ℹ 7,907 more rows
…
data_baseline_mi <- 
  data_baseline_mi |> 
  left_join(cov_hyperchol, by = "id") |> 
  mutate(hyperchol = replace_na(hyperchol, 0))

data_baseline_mi

# A tibble: 4,000 × 4
   id    index_date hypertension hyperchol
   <fct> <date>            <dbl>     <dbl>
 1 212   2014-07-18            0         0
 2 483   2017-12-10            0         0
 3 731   2023-07-27            0         0
 4 949   2021-11-03            0         1
 5 981   2020-08-05            0         0
 6 982   2015-05-22            0         1
 7 1123  2015-07-25            0         1
 8 2166  2016-09-30            0         1
 9 2469  2023-08-26            0         0
10 2870  2010-09-03            0         0
# ℹ 3,990 more rows
…
  # Now:
  data %>% select(all_of(covariates))

See <https://tidyselect.r-lib.org/reference/faq-external-vector.html>.

Code

data_covariates_mi

# A tibble: 4,000 × 10
   id    index_date   los birth_date sex     age hypertension
   <fct> <date>     <dbl> <date>     <fct> <dbl>        <int>
 1 212   2014-07-18     4 1941-01-01 1        74            0
 2 483   2017-12-10     9 1918-01-01 2       100            0
 3 731   2023-07-27     7 1931-01-01 2        93            0
 4 949   2021-11-03     7 1954-01-01 1        68            0
 5 981   2020-08-05    13 1945-01-01 2        76            0
 6 982   2015-05-22     6 1945-01-01 2        70            0
 7 1123  2015-07-25     6 1955-01-01 1        61            0
 8 2166  2016-09-30     7 1962-01-01 1        55            0
 9 2469  2023-08-26     5 1920-01-02 2       104            0
10 2870  2010-09-03    14 1939-01-01 1        72            0
# ℹ 3,990 more rows
# ℹ 3 more variables: hypercholesterolaemia <int>, diabetes <int>,
#   heart_failure <int>
…
