Introduction to R for Registry-Based Health Research - 9 Time-to-event setup
…
9.4 Time-to-event setup

Now, we will setup our dataset for a time-to-event analysis. We will follow patients from index_date until death, 1 year of follow-up, or December 31, 2024, whichever occurred first. We here just assume no emigration.

9.4.1 Step 01: Add death date

Code

data_tte <- data_pop_mi |> 
  select(id, index_date) |> 
  left_join(basic_data |> select(id, sex, death_date), by = "id")

data_tte

# A tibble: 4,000 × 4
   id    index_date sex   death_date
   <fct> <date>     <fct> <date>    
 1 212   2014-07-18 1     NA        
 2 483   2017-12-10 2     NA        
 3 731   2023-07-27 2     NA        
 4 949   2021-11-03 1     NA        
 5 981   2020-08-05 2     NA        
 6 982   2015-05-22 2     NA        
 7 1123  2015-07-25 1     NA        
 8 2166  2016-09-30 1     NA        
 9 2469  2023-08-26 2     2024-04-23
10 2870  2010-09-03 1     NA        
# ℹ 3,990 more rows

9.4.2 Step 02: Generate stop dates

Code

data_tte <- data_tte |> 
  dplyr::mutate(
    max_fu = lubridate::ymd(index_date) + lubridate::years(1), # 1 year of follow-up
    stop_study = lubridate::ymd("2024-12-31")) # stop of study

data_tte

# A tibble: 4,000 × 6
   id    index_date sex   death_date max_fu     stop_study
   <fct> <date>     <fct> <date>     <date>     <date>    
 1 212   2014-07-18 1     NA         2015-07-18 2024-12-31
 2 483   2017-12-10 2     NA         2018-12-10 2024-12-31
 3 731   2023-07-27 2     NA         2024-07-27 2024-12-31
 4 949   2021-11-03 1     NA         2022-11-03 2024-12-31
 5 981   2020-08-05 2     NA         2021-08-05 2024-12-31
 6 982   2015-05-22 2     NA         2016-05-22 2024-12-31
 7 1123  2015-07-25 1     NA         2016-07-25 2024-12-31
 8 2166  2016-09-30 1     NA         2017-09-30 2024-12-31
 9 2469  2023-08-26 2     2024-04-23 2024-08-26 2024-12-31
10 2870  2010-09-03 1     NA         2011-09-03 2024-12-31
# ℹ 3,990 more rows

9.4.3 Step 03. Select first of death, max follow-up, or study stop

Code

data_tte <- data_tte |> 
  mutate(across(c(death_date, max_fu, stop_study), ~ as.Date(.x)), # ensure that dates are <date> format
         end_date = pmin(death_date, max_fu, stop_study, na.rm = TRUE) # Follow-up ends at death, 1 year, or study stop — whichever comes 
  )

data_tte

# A tibble: 4,000 × 7
   id    index_date sex   death_date max_fu     stop_study end_date  
   <fct> <date>     <fct> <date>     <date>     <date>     <date>    
 1 212   2014-07-18 1     NA         2015-07-18 2024-12-31 2015-07-18
 2 483   2017-12-10 2     NA         2018-12-10 2024-12-31 2018-12-10
 3 731   2023-07-27 2     NA         2024-07-27 2024-12-31 2024-07-27
 4 949   2021-11-03 1     NA         2022-11-03 2024-12-31 2022-11-03
 5 981   2020-08-05 2     NA         2021-08-05 2024-12-31 2021-08-05
 6 982   2015-05-22 2     NA         2016-05-22 2024-12-31 2016-05-22
 7 1123  2015-07-25 1     NA         2016-07-25 2024-12-31 2016-07-25
 8 2166  2016-09-30 1     NA         2017-09-30 2024-12-31 2017-09-30
 9 2469  2023-08-26 2     2024-04-23 2024-08-26 2024-12-31 2024-04-23
10 2870  2010-09-03 1     NA         2011-09-03 2024-12-31 2011-09-03
# ℹ 3,990 more rows

9.4.4 Step 04. Create a time indicator

Code

data_tte <- data_tte |> 
  mutate(
         time = as.numeric(end_date - index_date) # here in days
         )

data_tte

# A tibble: 4,000 × 8
   id    index_date sex   death_date max_fu     stop_study end_date    time
   <fct> <date>     <fct> <date>     <date>     <date>     <date>     <dbl>
 1 212   2014-07-18 1     NA         2015-07-18 2024-12-31 2015-07-18   365
 2 483   2017-12-10 2     NA         2018-12-10 2024-12-31 2018-12-10   365
 3 731   2023-07-27 2     NA         2024-07-27 2024-12-31 2024-07-27   366
 4 949   2021-11-03 1     NA         2022-11-03 2024-12-31 2022-11-03   365
 5 981   2020-08-05 2     NA         2021-08-05 2024-12-31 2021-08-05   365
 6 982   2015-05-22 2     NA         2016-05-22 2024-12-31 2016-05-22   366
 7 1123  2015-07-25 1     NA         2016-07-25 2024-12-31 2016-07-25   366
 8 2166  2016-09-30 1     NA         2017-09-30 2024-12-31 2017-09-30   365
 9 2469  2023-08-26 2     2024-04-23 2024-08-26 2024-12-31 2024-04-23   241
10 2870  2010-09-03 1     NA         2011-09-03 2024-12-31 2011-09-03   365
# ℹ 3,990 more rows
…
Code

data_tte <- data_tte |> 
  mutate(
         status = 
           case_when(
             !is.na(death_date) & death_date == end_date ~ 1, # if stop of follow-up due to death
             TRUE ~ 0 # if censored due to 1 year of follow-up or study stop
             )
         ) |> 
  select(-c(max_fu, stop_study))

data_tte

# A tibble: 4,000 × 7
   id    index_date sex   death_date end_date    time status
   <fct> <date>     <fct> <date>     <date>     <dbl>  <dbl>
 1 212   2014-07-18 1     NA         2015-07-18   365      0
 2 483   2017-12-10 2     NA         2018-12-10   365      0
 3 731   2023-07-27 2     NA         2024-07-27   366      0
 4 949   2021-11-03 1     NA         2022-11-03   365      0
 5 981   2020-08-05 2     NA         2021-08-05   365      0
 6 982   2015-05-22 2     NA         2016-05-22   366      0
 7 1123  2015-07-25 1     NA         2016-07-25   366      0
 8 2166  2016-09-30 1     NA         2017-09-30   365      0
 9 2469  2023-08-26 2     2024-04-23 2024-04-23   241      1
10 2870  2010-09-03 1     NA         2011-09-03   365      0
# ℹ 3,990 more rows
…
